{
  "main.js": "render-page.js",
  "render-page.js.map": "render-page.js.map",
  "static/BANNERS-ROTATIVOS.png": "static/BANNERS-ROTATIVOS-263f9aadafd16a6d96ddb43f7361fee9.png",
  "static/BANNERS-ROTATIVOS2.png": "static/BANNERS-ROTATIVOS2-966f093048750178d0ff4a2e3b72a87a.png",
  "static/BANNERS-ROTATIVOS3.png": "static/BANNERS-ROTATIVOS3-31c5ef9ac9584c6ab221f4ee43a1eddf.png",
  "static/BANNERS-ROTATIVOS4.png": "static/BANNERS-ROTATIVOS4-cd960ad5312cf6474ddda538d7388c50.png",
  "static/TABLA-DE-PRECIOS.png": "static/TABLA-DE-PRECIOS-7a907049f9f1d978829b2f8dc299de47.png",
  "static/celulares.png": "static/celulares-3ee66b85cb5148f648f169360e605c83.png",
  "static/ejemplo.jpg": "static/ejemplo-549c4cd8eaacb01232ec8ac2dd729040.jpg"
}